<?xml version="1.0" encoding="UTF-8"?>
<svg width="55px" height="70px" viewBox="0 0 55 70" version="1.1" xmlns="http://www.w3.org/2000/svg" xmlns:xlink="http://www.w3.org/1999/xlink">
    <!-- Generator: Sketch 42 (36781) - http://www.bohemiancoding.com/sketch -->
    <title>Library</title>
    <desc>Created with Sketch.</desc>
    <defs></defs>
    <g id="Page-1" stroke="none" stroke-width="1" fill="none" fill-rule="evenodd">
        <g id="Library" fill-rule="nonzero">
            <g id="Med3_fmt-1" fill="#535353">
                <g id="Warstwa_1">
                    <g id="Page-1_1_">
                        <g id="Hos_fmt_1_">
                            <path d="M55,27.391 C55,48.441 27.5,70 27.5,70 C27.5,70 0,48.441 0,27.391 C0,12.263 12.312,0 27.5,0 C42.688,0 55,12.263 55,27.391" id="Page-1_3_"></path>
                        </g>
                    </g>
                </g>
            </g>
            <g id="library" transform="translate(11.000000, 15.000000)" fill="#FFFFFF">
                <path d="M16.9215385,5.31875 C16.9215385,5.31875 12.2923077,0.21875 0,0.21875 L0,21.46875 C12.2923077,21.46875 16.9215385,26.78125 16.9215385,26.78125 C16.9215385,26.78125 21.7076923,21.46875 34,21.46875 L34,0.21875 C21.7076923,0.21875 16.9215385,5.31875 16.9215385,5.31875 Z M31.3846154,18.8125 C26.2548,18.9431875 21.2560154,20.4856719 16.9215385,23.275 C12.648,20.4787656 7.6976,18.9344219 2.61538462,18.8125 L2.61538462,2.875 C11.5076923,3.565625 14.9861538,7.125 15.0384615,7.1515625 L16.9476923,9.1171875 L18.8307692,7.125 C18.8307692,7.125 22.4923077,3.565625 31.3846154,2.875 L31.3846154,18.8125 Z M18.3076923,19.45 L18.0461538,18.9984375 C21.4490308,17.4230156 25.0624462,16.3668906 28.7692308,15.8640625 L28.7692308,16.3953125 C25.1498,16.9140781 21.6250462,17.9702031 18.3076923,19.5296875 L18.3076923,19.45 Z M18.3076923,16.79375 L18.0461538,16.3421875 C21.4503385,14.7755312 25.0637538,13.7284375 28.7692308,13.234375 L28.7692308,13.765625 C25.1484923,14.2936875 21.6237385,15.3585781 18.3076923,16.9265625 L18.3076923,16.79375 Z M18.3076923,14.1375 L18.0461538,13.6859375 C21.4500769,12.11875 25.0634923,11.0713906 28.7692308,10.578125 L28.7692308,11.109375 C25.1482308,11.6355781 21.6232154,12.7004687 18.3076923,14.2703125 L18.3076923,14.1375 Z M18.3076923,11.48125 L18.0461538,11.0296875 C21.4495538,9.46090625 25.0632308,8.41354687 28.7692308,7.921875 L28.7692308,8.453125 C25.1484923,8.98065625 21.6237385,10.0458125 18.3076923,11.6140625 L18.3076923,11.48125 Z M15.4307692,19.45 C12.1978923,17.9202656 8.76127692,16.8822031 5.23076923,16.36875 L5.23076923,15.8375 C8.85883077,16.3761875 12.3859385,17.4687031 15.6923077,19.078125 L15.4307692,19.45 Z M15.4307692,16.79375 C12.1952769,15.2823437 8.7584,14.2620781 5.23076923,13.765625 L5.23076923,13.234375 C8.85569231,13.7727969 12.3814923,14.8560156 15.6923077,16.4484375 L15.4307692,16.79375 Z M15.4307692,14.1375 C12.1958,12.6247656 8.75866154,11.6042344 5.23076923,11.109375 L5.23076923,10.578125 C8.85778462,11.1067187 12.3848923,12.1904687 15.6923077,13.7921875 L15.4307692,14.1375 Z M15.4307692,11.48125 C12.1952769,9.96984375 8.7584,8.94957812 5.23076923,8.453125 L5.23076923,7.921875 C8.85569231,8.4595 12.3817538,9.54271875 15.6923077,11.1359375 L15.4307692,11.48125 Z" id="Shape"></path>
            </g>
        </g>
    </g>
</svg>