<?xml version="1.0" encoding="UTF-8"?>
<svg width="55px" height="70px" viewBox="0 0 55 70" version="1.1" xmlns="http://www.w3.org/2000/svg" xmlns:xlink="http://www.w3.org/1999/xlink">
    <!-- Generator: Sketch 42 (36781) - http://www.bohemiancoding.com/sketch -->
    <title>Hos_fmt</title>
    <desc>Created with Sketch.</desc>
    <defs></defs>
    <g id="Page-1" stroke="none" stroke-width="1" fill="none" fill-rule="evenodd">
        <g id="Hos_fmt" fill-rule="nonzero">
            <g id="Page-1">
                <g id="Hos_fmt">
                    <path d="M55,27.3913043 C55,48.442029 27.5,70 27.5,70 C27.5,70 0,48.442029 0,27.3913043 C0,12.2631884 12.3118519,0 27.5,0 C42.6881481,0 55,12.2631884 55,27.3913043" id="Page-1" fill="#E5B1BD"></path>
                    <g id="Page-1" transform="translate(12.222222, 13.188406)" fill="#FFFFFF">
                        <polygon id="Fill-3" points="9.29398148 29.6262319 21.2615741 29.6262319 21.2615741 0.713188406 9.29398148 0.713188406"></polygon>
                        <polygon id="Fill-5" points="0.763888889 21.1298551 29.7916667 21.1298551 29.7916667 9.20956522 0.763888889 9.20956522"></polygon>
                    </g>
                </g>
            </g>
        </g>
    </g>
</svg>