<?xml version="1.0" encoding="utf-8"?>
<!-- Generator: Adobe Illustrator 15.0.0, SVG Export Plug-In . SVG Version: 6.00 Build 0)  -->
<!DOCTYPE svg PUBLIC "-//W3C//DTD SVG 1.1//EN" "http://www.w3.org/Graphics/SVG/1.1/DTD/svg11.dtd">
<svg version="1.1" id="Warstwa_1" xmlns="http://www.w3.org/2000/svg" xmlns:xlink="http://www.w3.org/1999/xlink" x="0px" y="0px"
	 width="55px" height="70px" viewBox="127 0 55 70" enable-background="new 127 0 55 70" xml:space="preserve">
<title>Hos_fmt</title>
<desc>Created with Sketch.</desc>
<g id="Page-1_1_">
	<g id="Hos_fmt_1_">
		<path id="Page-1_3_" fill="#535353" d="M182,27.891c0,21.05-27.5,42.609-27.5,42.609S127,48.941,127,27.891
			C127,12.763,139.312,0.5,154.5,0.5S182,12.763,182,27.891"/>
	</g>
</g>
<path fill="#FFFFFF" d="M165.77,25.619c-2.099,0.762-3.508,2.918-3.29,5.032c-2.671,1.701-3.994,5.104-2.881,8.173l0.293,0.806
	c0.47,1.294-0.249,2.832-1.542,3.303c-1.292,0.468-2.832-0.252-3.301-1.543l-2.11-5.814c3.641-2.051,5.873-5.968,5.436-10.195
	l-0.541-6.017c-0.38-2.055-1.626-3.979-3.504-5.125c-1.819-0.984-4.109-1.249-6.047-0.545c-0.969,0.352-1.379,1.232-1.027,2.201
	c0.352,0.969,1.231,1.38,2.2,1.028c1.131-0.41,2.274-0.278,3.214,0.294c0.938,0.574,1.672,1.587,1.862,2.614l0.481,5.855
	c0.247,3.2-1.736,6.295-4.803,7.409c-3.067,1.114-6.575,0.011-8.437-2.602l-3.389-4.8c-0.512-0.91-0.6-2.158-0.248-3.2
	c0.354-1.042,1.308-1.936,2.276-2.288c0.97-0.352,1.381-1.232,1.029-2.201c-0.353-0.969-1.232-1.38-2.202-1.028
	c-1.937,0.703-3.521,2.375-4.286,4.297c-0.706,2.084-0.486,4.197,0.657,6.34l3.387,4.8c2.375,3.524,6.602,5.096,10.711,4.335
	l2.11,5.812c1.114,3.069,4.635,4.715,7.703,3.602c3.068-1.114,4.712-4.635,3.599-7.704l-0.293-0.807
	c-0.47-1.294-0.072-2.717,0.883-3.611c1.452,1.483,3.477,2.027,5.575,1.265c2.745-0.997,4.082-3.857,3.086-6.603
	C171.376,25.96,168.353,24.681,165.77,25.619z M168.113,32.076c-0.968,0.352-1.849-0.058-2.2-1.028
	c-0.353-0.968,0.06-1.849,1.029-2.201c0.969-0.352,1.849,0.06,2.2,1.028C169.494,30.845,168.921,31.783,168.113,32.076z"/>
</svg>
