<?xml version="1.0" encoding="UTF-8"?>
<svg width="55px" height="70px" viewBox="0 0 55 70" version="1.1" xmlns="http://www.w3.org/2000/svg" xmlns:xlink="http://www.w3.org/1999/xlink">
    <!-- Generator: Sketch 42 (36781) - http://www.bohemiancoding.com/sketch -->
    <title>number_9</title>
    <desc>Created with Sketch.</desc>
    <defs></defs>
    <g id="Page-1" stroke="none" stroke-width="1" fill="none" fill-rule="evenodd">
        <g id="number_9">
            <g id="pin_red" fill-rule="nonzero" fill="#EA2833">
                <g id="Page-1">
                    <path d="M55,27.3913043 C55,48.442029 27.5,70 27.5,70 C27.5,70 0,48.442029 0,27.3913043 C0,12.2631884 12.3118519,0 27.5,0 C42.6881481,0 55,12.2631884 55,27.3913043" id="Shape"></path>
                </g>
            </g>
            <path d="M32.92,22.445 C34.2200065,23.8750071 34.87,25.7799881 34.87,28.16 C34.87,30.9000137 34.4250045,33.169991 33.535,34.97 C32.6449956,36.770009 31.2800092,38.2149946 29.44,39.305 C27.5999908,40.3950054 25.2000148,41.239997 22.24,41.84 L21.28,38.54 C23.9000131,37.8999968 25.8699934,37.0950048 27.19,36.125 C28.5100066,35.1549951 29.369998,33.7900088 29.77,32.03 C28.7099947,33.3300065 27.3100087,33.98 25.57,33.98 C24.5099947,33.98 23.5400044,33.7100027 22.66,33.17 C21.7799956,32.6299973 21.0800026,31.8500051 20.56,30.83 C20.0399974,29.8099949 19.78,28.6300067 19.78,27.29 C19.78,25.9099931 20.1099967,24.6900053 20.77,23.63 C21.4300033,22.5699947 22.3349943,21.7500029 23.485,21.17 C24.6350057,20.5899971 25.909993,20.3 27.31,20.3 C29.7500122,20.3 31.6199935,21.0149928 32.92,22.445 Z M28.675,30.185 C29.1850026,29.8749984 29.639998,29.4300029 30.04,28.85 C30.0600001,26.9699906 29.8600021,25.6400039 29.44,24.86 C29.0199979,24.0799961 28.310005,23.69 27.31,23.69 C26.4499957,23.69 25.7750024,23.984997 25.285,24.575 C24.7949975,25.1650029 24.55,26.0199944 24.55,27.14 C24.55,28.3800062 24.7749978,29.2749972 25.225,29.825 C25.6750022,30.3750027 26.2799962,30.65 27.04,30.65 C27.6200029,30.65 28.1649975,30.4950015 28.675,30.185 Z" id="9" fill="#FFFFFF"></path>
        </g>
    </g>
</svg>