<?xml version="1.0" encoding="UTF-8"?>
<svg width="55px" height="70px" viewBox="0 0 55 70" version="1.1" xmlns="http://www.w3.org/2000/svg" xmlns:xlink="http://www.w3.org/1999/xlink">
    <!-- Generator: Sketch 42 (36781) - http://www.bohemiancoding.com/sketch -->
    <title>number_12</title>
    <desc>Created with Sketch.</desc>
    <defs></defs>
    <g id="Page-1" stroke="none" stroke-width="1" fill="none" fill-rule="evenodd">
        <g id="number_12">
            <g id="pin_red" fill-rule="nonzero" fill="#EA2833">
                <g id="Page-1">
                    <path d="M55,27.3913043 C55,48.442029 27.5,70 27.5,70 C27.5,70 0,48.442029 0,27.3913043 C0,12.2631884 12.3118519,0 27.5,0 C42.6881481,0 55,12.2631884 55,27.3913043" id="Shape"></path>
                </g>
            </g>
            <path d="M23.4116667,20.72 L23.4116667,41 L18.7616667,41 L18.7616667,25.34 L14.4116667,28.01 L12.3416667,24.86 L19.1816667,20.72 L23.4116667,20.72 Z M37.61,21.08 C38.6600052,21.6000026 39.4599972,22.2999956 40.01,23.18 C40.5600027,24.0600044 40.835,25.0299947 40.835,26.09 C40.835,27.1700054 40.6150022,28.1999951 40.175,29.18 C39.7349978,30.1600049 38.9550056,31.2849937 37.835,32.555 C36.7149944,33.8250064 35.0850107,35.4299903 32.945,37.37 L41.255,37.37 L40.775,41 L27.575,41 L27.575,37.64 C30.0350123,35.2199879 31.8249944,33.3950062 32.945,32.165 C34.0650056,30.9349939 34.8499977,29.9100041 35.3,29.09 C35.7500022,28.2699959 35.975,27.4300043 35.975,26.57 C35.975,25.7499959 35.7400023,25.1050024 35.27,24.635 C34.7999976,24.1649977 34.165004,23.93 33.365,23.93 C32.6449964,23.93 32.0050028,24.0949984 31.445,24.425 C30.8849972,24.7550017 30.2950031,25.2899963 29.675,26.03 L26.885,23.81 C27.7250042,22.7099945 28.7299941,21.8500031 29.9,21.23 C31.0700058,20.6099969 32.3849927,20.3 33.845,20.3 C35.3050073,20.3 36.5599947,20.5599974 37.61,21.08 Z" id="12" fill="#FFFFFF"></path>
        </g>
    </g>
</svg>