<?xml version="1.0" encoding="UTF-8"?>
<svg width="55px" height="70px" viewBox="0 0 55 70" version="1.1" xmlns="http://www.w3.org/2000/svg" xmlns:xlink="http://www.w3.org/1999/xlink">
    <!-- Generator: Sketch 42 (36781) - http://www.bohemiancoding.com/sketch -->
    <title>number_2</title>
    <desc>Created with Sketch.</desc>
    <defs></defs>
    <g id="Page-1" stroke="none" stroke-width="1" fill="none" fill-rule="evenodd">
        <g id="number_2">
            <g id="pin_red" fill-rule="nonzero" fill="#EA2833">
                <g id="Page-1">
                    <path d="M55,27.3913043 C55,48.442029 27.5,70 27.5,70 C27.5,70 0,48.442029 0,27.3913043 C0,12.2631884 12.3118519,0 27.5,0 C42.6881481,0 55,12.2631884 55,27.3913043" id="Shape"></path>
                </g>
            </g>
            <path d="M29.905,21.08 C30.9550052,21.6000026 31.7549973,22.2999956 32.305,23.18 C32.8550027,24.0600044 33.13,25.0299947 33.13,26.09 C33.13,27.1700054 32.9100022,28.1999951 32.47,29.18 C32.0299978,30.1600049 31.2500056,31.2849937 30.13,32.555 C29.0099944,33.8250063 27.3800107,35.4299903 25.24,37.37 L33.55,37.37 L33.07,41 L19.87,41 L19.87,37.64 C22.3300123,35.2199879 24.1199944,33.3950062 25.24,32.165 C26.3600056,30.9349939 27.1449978,29.9100041 27.595,29.09 C28.0450023,28.2699959 28.27,27.4300043 28.27,26.57 C28.27,25.7499959 28.0350023,25.1050023 27.565,24.635 C27.0949976,24.1649977 26.460004,23.93 25.66,23.93 C24.9399964,23.93 24.3000028,24.0949983 23.74,24.425 C23.1799972,24.7550017 22.5900031,25.2899963 21.97,26.03 L19.18,23.81 C20.0200042,22.7099945 21.0249942,21.8500031 22.195,21.23 C23.3650058,20.6099969 24.6799927,20.3 26.14,20.3 C27.6000073,20.3 28.8549948,20.5599974 29.905,21.08 Z" id="2" fill="#FFFFFF"></path>
        </g>
    </g>
</svg>