<?xml version="1.0" encoding="UTF-8"?>
<svg width="55px" height="70px" viewBox="0 0 55 70" version="1.1" xmlns="http://www.w3.org/2000/svg" xmlns:xlink="http://www.w3.org/1999/xlink">
    <!-- Generator: Sketch 42 (36781) - http://www.bohemiancoding.com/sketch -->
    <title>number_1</title>
    <desc>Created with Sketch.</desc>
    <defs></defs>
    <g id="Page-1" stroke="none" stroke-width="1" fill="none" fill-rule="evenodd">
        <g id="number_1">
            <g id="pin_red" fill-rule="nonzero" fill="#EA2833">
                <g id="Page-1">
                    <path d="M55,27.3913043 C55,48.442029 27.5,70 27.5,70 C27.5,70 0,48.442029 0,27.3913043 C0,12.2631884 12.3118519,0 27.5,0 C42.6881481,0 55,12.2631884 55,27.3913043" id="Shape"></path>
                </g>
            </g>
            <polygon id="1" fill="#FFFFFF" points="30.46 20.72 30.46 41 25.81 41 25.81 25.34 21.46 28.01 19.39 24.86 26.23 20.72"></polygon>
        </g>
    </g>
</svg>